<svg xmlns="http://www.w3.org/2000/svg" width="35.775" height="39.75" viewBox="0 0 35.775 39.75">
  <path id="ic_restaurant_24px" d="M18.9,15.913H14.925V2H10.95V15.913H6.975V2H3V15.913a7.922,7.922,0,0,0,7.453,7.89V41.75h4.969V23.8a7.922,7.922,0,0,0,7.453-7.89V2H18.9ZM28.837,9.95v15.9h4.969v15.9h4.969V2C33.29,2,28.837,6.452,28.837,9.95Z" transform="translate(-3 -2)" fill="#919191"/>
</svg>
